name,instruction
state_15,Disconnect state_14 (tire and wheel) from the axis (gray_long) on state_13
state_14,Separate tire and wheel
state_13,Remove the additional gray_short from the open end of the red_shaft
state_12,Remove the gray_frame from the end of the engine
state_11,Remove the 2 gray_loops from the top of the blue_shorts
state_10,Remove 2 short_blue parts from the gray_frame
state_9,Remove the black_short from the gray_frame
state_8,Remove the black_short with the white_45 from the engine
state_7,Remove the green_3 from the top of the gray_90
state_6,Remove the gray_long from behind
state_5,Remove the black_short from the bottom of the gray_90 added in state_4, then remove the gray_90 from the pins
state_4,Remove the blue_long from the end of the gray_45
state_3,Remove the blue_short from the very right end of the black_short with red_shaft, then disconnect black_short from red_shaft and remove gray_45
state_2,Remove gray_45 from the long end of the blue_long
state_1,Remove blue_long with the short end from the top right hole
state_0,Put down the engine